<?xml version="1.0" encoding="utf-8"?>
<!-- Generator: Adobe Illustrator 17.1.0, SVG Export Plug-In . SVG Version: 6.00 Build 0)  -->
<!DOCTYPE svg PUBLIC "-//W3C//DTD SVG 1.1//EN" "http://www.w3.org/Graphics/SVG/1.1/DTD/svg11.dtd">
<svg version="1.1" id="Icon_Expander" xmlns="http://www.w3.org/2000/svg" xmlns:xlink="http://www.w3.org/1999/xlink" x="0px"
	 y="0px" viewBox="0 0 24 24" enable-background="new 0 0 24 24" xml:space="preserve">
<symbol  id="Icon_x5F_Expander_x5F_PatientBar_x5F_MouseOver" viewBox="-6.815 -6.853 13.63 13.707">
	<g>
		<g opacity="0.3">
			<polyline fill="none" stroke="#FFFFFF" stroke-width="2" stroke-linejoin="bevel" stroke-miterlimit="10" points="6.151,5.106 
				0,-0.355 -6.151,5.106 			"/>
		</g>
		<g>
			<polyline fill="none" stroke="#363431" stroke-width="2" stroke-linejoin="bevel" stroke-miterlimit="10" points="6.151,6.106 
				0,0.645 -6.151,6.106 			"/>
		</g>
	</g>
	<g>
		<g opacity="0.3">
			<polyline fill="none" stroke="#FFFFFF" stroke-width="2" stroke-linejoin="bevel" stroke-miterlimit="10" points="6.151,-0.644 
				0,-6.105 -6.151,-0.644 			"/>
		</g>
		<g>
			<polyline fill="none" stroke="#363431" stroke-width="2" stroke-linejoin="bevel" stroke-miterlimit="10" points="6.151,0.356 
				0,-5.105 -6.151,0.356 			"/>
		</g>
	</g>
</symbol>
<use xlink:href="#Icon_x5F_Expander_x5F_PatientBar_x5F_MouseOver"  width="13.63" height="13.707" x="-6.815" y="-6.853" transform="matrix(1 0 0 -1 12 12.8533)" overflow="visible"/>
</svg>
