<?xml version="1.0" encoding="utf-8"?>
<!-- Generator: Adobe Illustrator 17.1.0, SVG Export Plug-In . SVG Version: 6.00 Build 0)  -->
<!DOCTYPE svg PUBLIC "-//W3C//DTD SVG 1.1//EN" "http://www.w3.org/Graphics/SVG/1.1/DTD/svg11.dtd">
<svg version="1.1" id="Icon_Expander" xmlns="http://www.w3.org/2000/svg" xmlns:xlink="http://www.w3.org/1999/xlink" x="0px"
	 y="0px" viewBox="0 0 24 24" enable-background="new 0 0 24 24" xml:space="preserve">
<symbol  id="Icon_x5F_Expander_x5F_PatientBar_x5F_Normal" viewBox="-6.815 -7.353 13.63 13.707">
	<g>
		<g opacity="0.3">
			<polyline fill="none" stroke="#FFFFFF" stroke-width="2" stroke-linejoin="bevel" stroke-miterlimit="10" points="6.151,4.605 
				0,-0.855 -6.151,4.605 			"/>
		</g>
		<g>
			<polyline fill="none" stroke="#5A5548" stroke-width="2" stroke-linejoin="bevel" stroke-miterlimit="10" points="6.151,5.605 
				0,0.145 -6.151,5.605 			"/>
		</g>
	</g>
	<g>
		<g opacity="0.3">
			<polyline fill="none" stroke="#FFFFFF" stroke-width="2" stroke-linejoin="bevel" stroke-miterlimit="10" points="6.151,-1.145 
				0,-6.605 -6.151,-1.145 			"/>
		</g>
		<g>
			<polyline fill="none" stroke="#5A5548" stroke-width="2" stroke-linejoin="bevel" stroke-miterlimit="10" points="6.151,-0.145 
				0,-5.605 -6.151,-0.145 			"/>
		</g>
	</g>
</symbol>
<use xlink:href="#Icon_x5F_Expander_x5F_PatientBar_x5F_Normal"  width="13.63" height="13.707" x="-6.815" y="-7.353" transform="matrix(1 0 0 -1 12 12.3534)" overflow="visible"/>
</svg>
