<?xml version="1.0" encoding="utf-8"?>
<!-- Generator: Adobe Illustrator 16.0.0, SVG Export Plug-In . SVG Version: 6.00 Build 0)  -->
<!DOCTYPE svg PUBLIC "-//W3C//DTD SVG 1.1//EN" "http://www.w3.org/Graphics/SVG/1.1/DTD/svg11.dtd">
<svg version="1.1" xmlns="http://www.w3.org/2000/svg" xmlns:xlink="http://www.w3.org/1999/xlink" x="0px" y="0px" width="6px"
	 height="6px" viewBox="0 0 6 6" enable-background="new 0 0 6 6" xml:space="preserve">
<g id="Layer_4" display="none">
	<polygon display="inline" fill="#000000" points="3,0 4.5,3 6,6 3,6 0,6 1.5,3 	"/>
</g>
<g id="Layer_3" display="none">
	<polygon display="inline" fill="#000000" points="3,0 4.5,3 6,6 3,6 0,6 1.5,3 	"/>
</g>
<g id="Layer_2" display="none">
	<polygon display="inline" fill="#000000" points="3,0 4.5,3 6,6 3,6 0,6 1.5,3 	"/>
</g>
<g id="Layer_1">
	<polygon fill="#000000" points="3,0 4.5,3 6,6 3,6 0,6 1.5,3 	"/>
</g>
</svg>
