<?xml version="1.0" encoding="utf-8"?>
<!-- Generator: Adobe Illustrator 18.1.1, SVG Export Plug-In . SVG Version: 6.00 Build 0)  -->
<!DOCTYPE svg PUBLIC "-//W3C//DTD SVG 1.1//EN" "http://www.w3.org/Graphics/SVG/1.1/DTD/svg11.dtd">
<svg version="1.1" id="Layer_1" xmlns="http://www.w3.org/2000/svg" xmlns:xlink="http://www.w3.org/1999/xlink" x="0px" y="0px"
     viewBox="-155 247 300 300" enable-background="new -155 247 300 300" xml:space="preserve">
<g transform="translate(0.000000,300.000000) scale(0.100000,-0.100000)">
    <path id="node2" fill="#F8F6F3" d="M74.5-291c-206-171-415-346-465-388s-131-110-181-151c-152-126-152-154,0-280
        c50-41,131-109,181-151s259-217,465-388c352-293,376-311,413-311c30,0,46,7,69,29l29,29v932v932l-29,29c-23,22-39,29-69,29
        C450.5,20,426.5,2,74.5-291z"/>
</g>
<g transform="translate(0.000000,300.000000) scale(0.100000,-0.100000)">
</g>
</svg>
