<?xml version="1.0" encoding="utf-8"?>
<!-- Generator: Adobe Illustrator 18.1.1, SVG Export Plug-In . SVG Version: 6.00 Build 0)  -->
<!DOCTYPE svg PUBLIC "-//W3C//DTD SVG 1.1//EN" "http://www.w3.org/Graphics/SVG/1.1/DTD/svg11.dtd">
<svg version="1.1" id="Layer_1" xmlns="http://www.w3.org/2000/svg" xmlns:xlink="http://www.w3.org/1999/xlink" x="0px" y="0px"
     viewBox="0 0 16 16" style="enable-background:new 0 0 16 16;" xml:space="preserve">
<g transform="translate(0.000000,300.000000) scale(0.100000,-0.100000)">
    <path id="node2_3_" style="fill:#F8F6F3;" d="M160,2963.4c0,2.4-0.6,3.7-2.3,5.6l-2.3,2.3H80H4.7l-2.3-2.3
        c-1.8-1.9-2.3-3.2-2.3-5.6c0-3,1.5-4.9,25.1-33.4c13.8-16.6,28-33.5,31.4-37.6c3.4-4,8.9-10.6,12.2-14.6
        c10.2-12.3,12.4-12.3,22.6,0c3.3,4,8.8,10.6,12.2,14.6c3.4,4,17.5,20.9,31.4,37.6C158.5,2958.5,160,2960.4,160,2963.4z"/>
</g>
</svg>
