<?xml version="1.0" encoding="iso-8859-1"?>
<!-- Generator: Adobe Illustrator 18.0.0, SVG Export Plug-In . SVG Version: 6.00 Build 0)  -->
<!DOCTYPE svg PUBLIC "-//W3C//DTD SVG 1.1//EN" "http://www.w3.org/Graphics/SVG/1.1/DTD/svg11.dtd">
<svg version="1.1" xmlns="http://www.w3.org/2000/svg" xmlns:xlink="http://www.w3.org/1999/xlink" x="0px" y="0px"
	 viewBox="0 0 48 48" style="enable-background:new 0 0 48 48;" xml:space="preserve">
<g id="canvas">
	<rect style="opacity:0;fill:#FFFFFF;" width="48" height="48"/>
</g>
<g id="Layer_68">
	<g>
		<g>
			<linearGradient id="SVGID_1_" gradientUnits="userSpaceOnUse" x1="24" y1="12.6736" x2="24" y2="46.3184">
				<stop  offset="0" style="stop-color:#FFFFFF"/>
				<stop  offset="1" style="stop-color:#D1CFC9"/>
			</linearGradient>
			<rect x="1" y="1" style="fill:url(#SVGID_1_);" width="46" height="46"/>
			<path d="M46,2v44H2V2H46 M48-0.001h-2H2H0v2v44v2h2h44h2v-2V2V-0.001L48-0.001z"/>
		</g>
	</g>
	<path style="opacity:0.3;" d="M46,19v-2h-9V9h-2v8H25V9h-2v8H13V9h-2v8H2v2h9v7.5H2v2h9V36H2v2h9v8h2v-8h10v8h2v-8h10v8h2v-8h9v-2
		h-9v-7.5h9v-2h-9V19H46z M13,19h10v7.5H13V19z M13,36v-7.5h10V36H13z M35,36H25v-7.5h10V36z M35,26.5H25V19h10V26.5z"/>
	<g>
		<rect x="2" y="7" width="44" height="2.368"/>
	</g>
	<linearGradient id="SVGID_2_" gradientUnits="userSpaceOnUse" x1="2" y1="4.4995" x2="46" y2="4.4995">
		<stop  offset="0" style="stop-color:#B0D4FF"/>
		<stop  offset="0.6435" style="stop-color:#89B8F7"/>
		<stop  offset="1" style="stop-color:#79ACF3"/>
	</linearGradient>
	<rect x="2" y="2" style="fill:url(#SVGID_2_);" width="44" height="5"/>
	<path style="opacity:0.3;fill:none;stroke:#000000;stroke-width:2;" d="M2,40"/>
	<path style="opacity:0.3;fill:none;stroke:#000000;stroke-width:2;" d="M46,40"/>
	<path style="opacity:0.3;fill:none;stroke:#000000;stroke-width:2;" d="M10,46"/>
	<path style="fill:none;stroke:#000000;stroke-width:2;" d="M10,9"/>
	<g>
		<linearGradient id="SVGID_3_" gradientUnits="userSpaceOnUse" x1="24" y1="32.25" x2="36" y2="32.25">
			<stop  offset="0" style="stop-color:#FFEDC7"/>
			<stop  offset="0.62" style="stop-color:#FFDDA4"/>
			<stop  offset="1" style="stop-color:#FFD694"/>
		</linearGradient>
		<rect x="24" y="27.5" style="fill:url(#SVGID_3_);" width="12" height="9.5"/>
		<g>
			<path d="M35,28.5V36H25v-7.5H35 M37,26.5h-2H25h-2v2V36v2h2h10h2v-2v-7.5V26.5L37,26.5z"/>
		</g>
	</g>
</g>
</svg>
