{
    "relationships": [],
    "fields": [
        {
            "fieldName": "number",
            "fieldType": "String",
            "fieldValidateRules": [
                "required",
                "minlength",
                "maxlength",
                "pattern"
            ],
            "fieldValidateRulesMinlength": "32",
            "fieldValidateRulesMaxlength": "32",
            "fieldValidateRulesPattern": "^[A-Z0-9]*$",
            "fieldValidateRulesPatternJava": "^[A-Z0-9]*$"
        },
        {
            "fieldName": "createDate",
            "fieldType": "ZonedDateTime"
        },
        {
            "fieldName": "user",
            "fieldType": "String"
        }
    ],
    "changelogDate": "20160608073403",
    "dto": "no",
    "service": "no",
    "entityTableName": "pop_number",
    "pagination": "infinite-scroll"
}
