{
    "relationships": [
        {
            "relationshipName": "study",
            "otherEntityName": "study",
            "relationshipType": "many-to-one",
            "relationshipValidateRules": [
                "required"
            ],
            "otherEntityField": "name"
        },
        {
            "relationshipName": "assignedMonitors",
            "otherEntityName": "monitor",
            "relationshipType": "one-to-many",
            "otherEntityRelationshipName": "assignedSubject"
        }
    ],
    "fields": [
        {
            "fieldName": "uniqueIdentifier",
            "fieldType": "String",
            "fieldValidateRules": [
                "required"
            ]
        },
        {
            "fieldName": "externalReference",
            "fieldType": "String"
        },
        {
            "fieldName": "firstName",
            "fieldType": "String"
        },
        {
            "fieldName": "lastName",
            "fieldType": "String"
        },
        {
            "fieldName": "dateOfBirth",
            "fieldType": "ZonedDateTime"
        },
        {
            "fieldName": "weight",
            "fieldType": "Double"
        },
        {
            "fieldName": "height",
            "fieldType": "Double"
        },
        {
            "fieldName": "sex",
            "fieldType": "Sex",
            "fieldValues": "MALE,FEMALE"
        },
        {
            "fieldName": "streetAddress",
            "fieldType": "String"
        },
        {
            "fieldName": "city",
            "fieldType": "String"
        },
        {
            "fieldName": "state",
            "fieldType": "String"
        },
        {
            "fieldName": "country",
            "fieldType": "String"
        },
        {
            "fieldName": "phoneNumber",
            "fieldType": "String"
        }
    ],
    "changelogDate": "20160624121904",
    "dto": "mapstruct",
    "service": "no",
    "entityTableName": "subject",
    "pagination": "pagination"
}
