<?xml version="1.0" encoding="utf-8"?>
<!-- Generator: Adobe Illustrator 14.0.0, SVG Export Plug-In . SVG Version: 6.00 Build 43363)  -->
<!DOCTYPE svg PUBLIC "-//W3C//DTD SVG 1.1//EN" "http://www.w3.org/Graphics/SVG/1.1/DTD/svg11.dtd">
<svg version="1.1" xmlns="http://www.w3.org/2000/svg" xmlns:xlink="http://www.w3.org/1999/xlink" x="0px" y="0px"
	 width="737.007px" height="158.287px" viewBox="0 0 737.007 158.287" enable-background="new 0 0 737.007 158.287"
	 xml:space="preserve">


     <filter  id="Philips_DropShadow" filterUnits="objectBoundingBox" x="-50%" y="-50%" width="200%" height="200%">
      <feGaussianBlur  in="SourceAlpha" result="blur" stdDeviation="2"></feGaussianBlur>
      <feOffset  dy="2" dx="0" in="blur" result="offsetBlurredAlpha"></feOffset>
      <feMerge>
          <feMergeNode  in="offsetBlurredAlpha"></feMergeNode>
          <feMergeNode  in="SourceGraphic"></feMergeNode>
      </feMerge>
     </filter>

<g id="New_Wordmark" filter="url(#Philips_DropShadow)">
	<linearGradient id="SVGID_1_" gradientUnits="userSpaceOnUse" x1="313.751" y1="14.1729" x2="313.751" y2="141.5054">
		<stop  offset="0.0057" style="stop-color:#E3DDD1"/>
		<stop  offset="0.04" style="stop-color:#D5CFC4"/>
		<stop  offset="0.7" style="stop-color:#A8A49B"/>
		<stop  offset="0.96" style="stop-color:#9B978E"/>
		<stop  offset="1" style="stop-color:#C5BFB5"/>
	</linearGradient>
	<path fill="url(#SVGID_1_)" d="M254.566,16.782H216.5v49.577h-39.631V16.782h-38.067v124.723h38.067V92.451H216.5v49.054h38.066
		V16.782L254.566,16.782z M387.016,116.455V16.782H348.95v124.723h68.832l5.736-25.05H387.016L387.016,116.455z M320.791,16.782
		h-38.065v124.723h38.065V16.782L320.791,16.782z M475.142,16.782h-38.066v124.723h38.066V16.782L475.142,16.782z M555.447,111.759
		c35.459,0,57.883-18.265,57.883-50.098c0-34.964-23.988-47.488-63.098-47.488c-15.121,0-33.372,1.042-46.408,2.609v124.723h38.066
		v-29.746H555.447L555.447,111.759z M575.785,62.182c0,16.178-7.822,27.138-27.638,27.138h-6.257V37.786
		c2.215-0.13,4.302-0.13,6.257-0.13C566.918,37.656,575.785,46.526,575.785,62.182L575.785,62.182z M65.798,111.759
		c35.458,0,57.881-18.265,57.881-50.098c0-34.964-23.987-47.488-63.096-47.488c-15.122,0-33.373,1.042-46.41,2.609v124.723h38.066
		v-29.746H65.798L65.798,111.759z M86.134,62.182c0,16.178-7.822,27.138-27.637,27.138h-6.258V37.786
		c2.216-0.13,4.302-0.13,6.258-0.13C77.27,37.656,86.134,46.526,86.134,62.182L86.134,62.182z"/>
</g>
<g id="New_Wordmark_copy" filter="url(#Philips_DropShadow)">
	<linearGradient id="SVGID_2_" gradientUnits="userSpaceOnUse" x1="671.9927" y1="14.1729" x2="671.9927" y2="144.1147">
		<stop  offset="0.0057" style="stop-color:#E3DDD1"/>
		<stop  offset="0.04" style="stop-color:#D5CFC4"/>
		<stop  offset="0.7" style="stop-color:#A8A49B"/>
		<stop  offset="0.96" style="stop-color:#9B978E"/>
		<stop  offset="1" style="stop-color:#C5BFB5"/>
	</linearGradient>
	<path fill="url(#SVGID_2_)" d="M662.868,48.614c0-6.784,6.779-9.916,17.729-9.916c11.994,0,25.03,2.609,33.895,6.263l-3.128-27.138
		c-9.908-2.087-18.772-3.651-34.938-3.651c-30.766,0-51.623,12.131-51.623,37.572c0,43.836,59.445,34.965,59.445,55.318
		c0,7.827-5.735,12.002-19.814,12.002c-12.516,0-31.81-4.175-43.281-9.915l4.172,28.701c11.472,4.177,27.115,6.264,39.63,6.264
		c31.81,0,57.882-10.437,57.882-41.749C722.834,60.617,662.868,68.445,662.868,48.614L662.868,48.614z"/>
</g>
</svg>
