<?xml version="1.0" encoding="utf-8"?>
<!-- Generator: Adobe Illustrator 17.1.0, SVG Export Plug-In . SVG Version: 6.00 Build 0)  -->
<!DOCTYPE svg PUBLIC "-//W3C//DTD SVG 1.1//EN" "http://www.w3.org/Graphics/SVG/1.1/DTD/svg11.dtd">
<svg version="1.1" id="Icon_Expander" xmlns="http://www.w3.org/2000/svg" xmlns:xlink="http://www.w3.org/1999/xlink" x="0px"
     y="0px" viewBox="0 0 24 24" enable-background="new 0 0 24 24" xml:space="preserve">
     <defs>
        <linearGradient id="SVGID_1_" gradientUnits="userSpaceOnUse" x1="184.1054" y1="-637.2638" x2="197.735" y2="-637.2638" gradientTransform="matrix(1 0 0 1 -190.9202 640.1391)">
            <stop  offset="0" style="stop-color:#A8A49B"/>
            <stop  offset="0.4987" style="stop-color:#8C8881"/>
            <stop  offset="1" style="stop-color:#A8A49B"/>
        </linearGradient>
        <linearGradient id="SVGID_2_" gradientUnits="userSpaceOnUse" x1="184.1054" y1="-643.0138" x2="197.735" y2="-643.0138" gradientTransform="matrix(1 0 0 1 -190.9202 640.1391)">
            <stop  offset="0" style="stop-color:#A8A49B"/>
            <stop  offset="0.4987" style="stop-color:#8C8881"/>
            <stop  offset="1" style="stop-color:#A8A49B"/>
        </linearGradient>
     </defs>
    <symbol  id="Icon_x5F_Expander_x5F_Arrow_x5F_Down_x5F_Normal" viewBox="-6.815 -6.353 13.63 12.707">
        <g id="Deleted_Symbol_6_">
            <polyline fill="none" stroke="url(#SVGID_1_)" stroke-width="2" stroke-linejoin="bevel" stroke-miterlimit="10" points="
                6.151,5.606 0,0.145 -6.151,5.606         "/>
            <polyline fill="none" stroke="url(#SVGID_2_)" stroke-width="2" stroke-linejoin="bevel" stroke-miterlimit="10" points="
                6.151,-0.144 0,-5.605 -6.151,-0.144         "/>
        </g>
    </symbol>
    <use xlink:href="#Icon_x5F_Expander_x5F_Arrow_x5F_Down_x5F_Normal"  width="13.63" height="12.707" id="Icon_x5F_Expander_x5F_Normal" x="-6.815" y="-6.353" transform="matrix(1 0 0 -1 12 12.353)" overflow="visible"/>
</svg>
