<?xml version="1.0" encoding="utf-8"?>
<!-- Generator: Adobe Illustrator 16.0.0, SVG Export Plug-In . SVG Version: 6.00 Build 0)  -->
<!DOCTYPE svg PUBLIC "-//W3C//DTD SVG 1.1//EN" "http://www.w3.org/Graphics/SVG/1.1/DTD/svg11.dtd">
<svg version="1.1" id="Layer_1" xmlns="http://www.w3.org/2000/svg" xmlns:xlink="http://www.w3.org/1999/xlink" x="0px" y="0px" width="8px" height="11px" viewBox="0 0 8 11" enable-background="new 0 0 8 11" xml:space="preserve">
    <polygon fill="#E3DDD1" points="4,0 6,3.5 8,7 4,7 0,7 2,3.5 "/>
    <rect y="9" fill="#E3DDD1" width="8" height="2"/>
</svg>
