<?xml version="1.0" encoding="utf-8"?>
<!-- Generator: Adobe Illustrator 18.0.0, SVG Export Plug-In . SVG Version: 6.00 Build 0)  -->
<!DOCTYPE svg PUBLIC "-//W3C//DTD SVG 1.1//EN" "http://www.w3.org/Graphics/SVG/1.1/DTD/svg11.dtd">
<svg version="1.1" id="Layer_1" xmlns="http://www.w3.org/2000/svg" xmlns:xlink="http://www.w3.org/1999/xlink" x="0px" y="0px"
	 viewBox="0 0 25 25" enable-background="new 0 0 25 25" xml:space="preserve">
<g>
	<polygon fill="#FDBA39" points="9.6,22.5 10.4,16.2 5.3,20.1 2.3,15 8.2,12.5 2.3,10 5.3,5 10.4,8.9 9.6,2.5 15.4,2.5 14.6,8.9 
		19.8,5 22.7,10 16.8,12.5 22.7,15 19.8,20.1 14.6,16.2 15.4,22.5 	"/>
	<path fill="#010101" d="M14.8,3L14,10l5.6-4.3L22,9.8l-6.5,2.7l6.5,2.8l-2.4,4.1L14,15.1l0.8,6.9h-4.6l0.8-6.9l-5.6,4.3L3,15.3
		l6.4-2.8L3,9.8l2.4-4.1L11,10l-0.8-7H14.8 M15.9,2h-1.1h-4.6H9.1l0.1,1.1l0.5,4.6L6,4.9L5.1,4.2l-0.6,1L2.2,9.3l-0.6,1l1.1,0.4
		l4.3,1.8l-4.3,1.8l-1,0.4l0.6,1l2.4,4.1l0.6,1L6,20.1l3.8-2.8l-0.5,4.6L9.1,23h1.1h4.6h1.1l-0.1-1.1l-0.5-4.6l3.8,2.8l0.9,0.7
		l0.6-1l2.4-4.1l0.6-1l-1-0.4l-4.3-1.8l4.3-1.8l1.1-0.4l-0.6-1l-2.4-4.1l-0.6-1L19,4.9l-3.8,2.8l0.5-4.6L15.9,2L15.9,2z"/>
</g>
</svg>
