<?xml version="1.0" encoding="utf-8"?>
<!-- Generator: Adobe Illustrator 14.0.0, SVG Export Plug-In . SVG Version: 6.00 Build 43363)  -->
<!DOCTYPE svg PUBLIC "-//W3C//DTD SVG 1.1//EN" "http://www.w3.org/Graphics/SVG/1.1/DTD/svg11.dtd">
<svg version="1.1" xmlns="http://www.w3.org/2000/svg" xmlns:xlink="http://www.w3.org/1999/xlink" x="0px" y="0px" width="48px"
	 height="48px" viewBox="0 0 48 48" enable-background="new 0 0 48 48" xml:space="preserve">
<g id="canvas">
	<rect opacity="0" fill="#FFFFFF" width="48" height="48"/>
</g>
<g id="Layer_12_copy_2">
	<g>
		<linearGradient id="SVGID_1_" gradientUnits="userSpaceOnUse" x1="16.6333" y1="19.3687" x2="16.6333" y2="29.4723">
			<stop  offset="0.3333" style="stop-color:#DED9D6"/>
			<stop  offset="0.7273" style="stop-color:#CCC7C4"/>
		</linearGradient>
		<path fill="url(#SVGID_1_)" d="M29.3,40.368c-0.137,0-0.273-0.037-0.394-0.111L3.573,24.638C3.352,24.502,3.217,24.26,3.217,24
			s0.135-0.502,0.356-0.639L28.906,7.745c0.12-0.074,0.257-0.111,0.394-0.111c0.126,0,0.252,0.032,0.365,0.095
			c0.237,0.132,0.385,0.383,0.385,0.655v31.234c0,0.271-0.147,0.522-0.385,0.655C29.552,40.337,29.426,40.368,29.3,40.368
			L29.3,40.368z"/>
		<g>
			<path fill="#2E2626" d="M29.3,8.384v31.234L3.967,24L29.3,8.384 M29.3,6.884c-0.273,0-0.546,0.075-0.787,0.223L3.18,22.723
				C2.737,22.996,2.467,23.479,2.467,24s0.27,1.004,0.713,1.276l25.333,15.618c0.241,0.149,0.514,0.224,0.787,0.224
				c0.252,0,0.504-0.063,0.731-0.19c0.475-0.265,0.769-0.766,0.769-1.31V8.384c0-0.543-0.294-1.045-0.769-1.31
				C29.804,6.947,29.552,6.884,29.3,6.884L29.3,6.884z"/>
		</g>
	</g>
	<g>
		<linearGradient id="SVGID_2_" gradientUnits="userSpaceOnUse" x1="39.5" y1="19.2593" x2="39.5" y2="29.5993">
			<stop  offset="0.3333" style="stop-color:#DED9D6"/>
			<stop  offset="0.7273" style="stop-color:#CCC7C4"/>
		</linearGradient>
		<path fill="url(#SVGID_2_)" d="M34.967,40.75c-0.414,0-0.75-0.336-0.75-0.75V8c0-0.414,0.336-0.75,0.75-0.75h9.066
			c0.414,0,0.75,0.336,0.75,0.75v32c0,0.414-0.336,0.75-0.75,0.75H34.967z"/>
		<g>
			<path fill="#2E2626" d="M44.033,8v32h-9.066V8H44.033 M44.033,6.5h-9.066c-0.828,0-1.5,0.671-1.5,1.5v32
				c0,0.828,0.672,1.5,1.5,1.5h9.066c0.828,0,1.5-0.672,1.5-1.5V8C45.533,7.171,44.861,6.5,44.033,6.5L44.033,6.5z"/>
		</g>
	</g>
</g>
</svg>
