<?xml version="1.0" encoding="utf-8"?>
<!-- Generator: Adobe Illustrator 14.0.0, SVG Export Plug-In . SVG Version: 6.00 Build 43363)  -->
<!DOCTYPE svg PUBLIC "-//W3C//DTD SVG 1.1//EN" "http://www.w3.org/Graphics/SVG/1.1/DTD/svg11.dtd">
<svg version="1.1" xmlns="http://www.w3.org/2000/svg" xmlns:xlink="http://www.w3.org/1999/xlink" x="0px" y="0px" width="48px"
	 height="48px" viewBox="0 0 48 48" enable-background="new 0 0 48 48" xml:space="preserve">
<g id="canvas">
	<rect opacity="0" fill="#FFFFFF" width="48" height="48"/>
</g>
<g id="Layer_12">
	<g>
		<linearGradient id="SVGID_1_" gradientUnits="userSpaceOnUse" x1="29.3506" y1="19.3687" x2="29.3506" y2="29.4723">
			<stop  offset="0.3333" style="stop-color:#DED9D6"/>
			<stop  offset="0.7273" style="stop-color:#CCC7C4"/>
		</linearGradient>
		<path fill="url(#SVGID_1_)" d="M42.017,40.368c-0.137,0-0.273-0.037-0.394-0.111L16.29,24.638
			c-0.222-0.136-0.356-0.378-0.356-0.638s0.135-0.502,0.356-0.639L41.623,7.745c0.12-0.074,0.257-0.111,0.394-0.111
			c0.126,0,0.252,0.032,0.365,0.095c0.237,0.132,0.385,0.383,0.385,0.655v31.234c0,0.271-0.147,0.522-0.385,0.655
			C42.269,40.337,42.143,40.368,42.017,40.368L42.017,40.368z"/>
		<g>
			<path fill="#2E2626" d="M42.017,8.384v31.234L16.684,24L42.017,8.384 M42.017,6.884c-0.273,0-0.546,0.075-0.787,0.223
				L15.896,22.723c-0.443,0.273-0.713,0.756-0.713,1.277s0.27,1.004,0.713,1.276l25.333,15.618c0.241,0.149,0.514,0.224,0.787,0.224
				c0.252,0,0.504-0.063,0.731-0.19c0.475-0.265,0.769-0.766,0.769-1.31V8.384c0-0.543-0.294-1.045-0.769-1.31
				C42.521,6.947,42.269,6.884,42.017,6.884L42.017,6.884z"/>
		</g>
	</g>
	<g>
		<linearGradient id="SVGID_2_" gradientUnits="userSpaceOnUse" x1="10.5166" y1="19.2593" x2="10.5166" y2="29.5993">
			<stop  offset="0.3333" style="stop-color:#DED9D6"/>
			<stop  offset="0.7273" style="stop-color:#CCC7C4"/>
		</linearGradient>
		<path fill="url(#SVGID_2_)" d="M5.983,40.75c-0.414,0-0.75-0.336-0.75-0.75V8c0-0.414,0.336-0.75,0.75-0.75h9.066
			c0.414,0,0.75,0.336,0.75,0.75v32c0,0.414-0.336,0.75-0.75,0.75H5.983z"/>
		<g>
			<path fill="#2E2626" d="M15.05,8v32H5.983V8H15.05 M15.05,6.5H5.983c-0.829,0-1.5,0.671-1.5,1.5v32c0,0.828,0.671,1.5,1.5,1.5
				h9.066c0.829,0,1.5-0.672,1.5-1.5V8C16.55,7.171,15.878,6.5,15.05,6.5L15.05,6.5z"/>
		</g>
	</g>
</g>
</svg>
