<?xml version="1.0" encoding="utf-8"?>
<!-- Generator: Adobe Illustrator 14.0.0, SVG Export Plug-In . SVG Version: 6.00 Build 43363)  -->
<!DOCTYPE svg PUBLIC "-//W3C//DTD SVG 1.1//EN" "http://www.w3.org/Graphics/SVG/1.1/DTD/svg11.dtd">
<svg version="1.1" xmlns="http://www.w3.org/2000/svg" xmlns:xlink="http://www.w3.org/1999/xlink" x="0px" y="0px" width="48px"
	 height="48px" viewBox="0 0 48 48" enable-background="new 0 0 48 48" xml:space="preserve">
<g id="canvas">
	<rect opacity="0" fill="#FFFFFF" width="48" height="48"/>
</g>
<g id="Layer_12_copy_3">
	<g>
		<linearGradient id="SVGID_1_" gradientUnits="userSpaceOnUse" x1="31.3672" y1="19.3687" x2="31.3672" y2="29.4723">
			<stop  offset="0.3333" style="stop-color:#DED9D6"/>
			<stop  offset="0.7273" style="stop-color:#CCC7C4"/>
		</linearGradient>
		<path fill="url(#SVGID_1_)" d="M18.7,40.368c-0.126,0-0.252-0.031-0.366-0.095c-0.237-0.133-0.384-0.384-0.384-0.655V8.384
			c0-0.272,0.147-0.522,0.384-0.655c0.114-0.063,0.24-0.095,0.366-0.095c0.137,0,0.273,0.037,0.394,0.111l25.333,15.616
			c0.222,0.137,0.356,0.378,0.356,0.639s-0.135,0.502-0.356,0.638L19.094,40.257C18.973,40.331,18.837,40.368,18.7,40.368
			L18.7,40.368z"/>
		<g>
			<path fill="#2E2626" d="M18.7,8.384L44.033,24L18.7,39.618V8.384 M18.7,6.884c-0.252,0-0.503,0.063-0.731,0.19
				C17.494,7.339,17.2,7.84,17.2,8.384v31.234c0,0.544,0.294,1.045,0.769,1.31c0.228,0.127,0.479,0.19,0.731,0.19
				c0.273,0,0.546-0.074,0.787-0.224L44.82,25.276c0.443-0.272,0.713-0.756,0.713-1.276s-0.27-1.004-0.713-1.277L19.487,7.107
				C19.247,6.958,18.974,6.884,18.7,6.884L18.7,6.884z"/>
		</g>
	</g>
	<g>
		<linearGradient id="SVGID_2_" gradientUnits="userSpaceOnUse" x1="8.5" y1="19.2593" x2="8.5" y2="29.5993">
			<stop  offset="0.3333" style="stop-color:#DED9D6"/>
			<stop  offset="0.7273" style="stop-color:#CCC7C4"/>
		</linearGradient>
		<path fill="url(#SVGID_2_)" d="M3.967,40.75c-0.414,0-0.75-0.336-0.75-0.75V8c0-0.414,0.336-0.75,0.75-0.75h9.066
			c0.414,0,0.75,0.336,0.75,0.75v32c0,0.414-0.336,0.75-0.75,0.75H3.967z"/>
		<g>
			<path fill="#2E2626" d="M13.033,8v32H3.967V8H13.033 M13.033,6.5H3.967c-0.829,0-1.5,0.671-1.5,1.5v32c0,0.828,0.671,1.5,1.5,1.5
				h9.066c0.829,0,1.5-0.672,1.5-1.5V8C14.533,7.171,13.862,6.5,13.033,6.5L13.033,6.5z"/>
		</g>
	</g>
</g>
</svg>
