<?xml version="1.0" encoding="iso-8859-1"?>
<!-- Generator: Adobe Illustrator 18.0.0, SVG Export Plug-In . SVG Version: 6.00 Build 0)  -->
<!DOCTYPE svg PUBLIC "-//W3C//DTD SVG 1.1//EN" "http://www.w3.org/Graphics/SVG/1.1/DTD/svg11.dtd">
<svg version="1.1" xmlns="http://www.w3.org/2000/svg" xmlns:xlink="http://www.w3.org/1999/xlink" x="0px" y="0px"
	 viewBox="0 0 48 48" style="enable-background:new 0 0 48 48;" xml:space="preserve">
<g id="Layer_2">
	<rect style="opacity:0;fill:#FFFFFF;" width="48" height="48"/>
</g>
<g id="Layer_3">
	<g>
		<g>
			<path d="M22.116,15.945c2.456,0,7.711,0.454,10.717,4.058l8.838-0.007l3.212-2.413l1.606-0.001l0.012,12.854l-1.607,0.003
				l-3.216-2.41l-8.837,0.011c-3.017,3.625-8.305,4.075-10.745,4.075c-0.807,0-1.302-0.049-1.302-0.049l-0.006-6.434
				c-3.292-0.019-15.804-0.195-19.286-1.585c3.48-1.395,15.992-1.59,19.284-1.62l-0.006-6.431
				C20.78,15.997,21.289,15.945,22.116,15.945 M22.116,14.445c-0.877,0-1.427,0.053-1.487,0.059
				c-0.767,0.077-1.35,0.723-1.349,1.494l0.004,4.947c-5.345,0.082-15.1,0.41-18.341,1.71c-0.569,0.228-0.942,0.78-0.942,1.393
				c0,0.614,0.375,1.165,0.944,1.392c3.278,1.308,13.011,1.611,18.344,1.678l0.004,4.948c0,0.771,0.585,1.416,1.352,1.492
				c0.058,0.005,0.594,0.056,1.45,0.056c2.869,0,8.045-0.545,11.417-4.076l7.666-0.009l2.815,2.109c0.26,0.194,0.575,0.3,0.9,0.3
				c0.001,0,0.002,0,0.002,0l1.608-0.003c0.828-0.002,1.498-0.674,1.497-1.501L47.989,17.58c0-0.398-0.159-0.779-0.44-1.06
				c-0.281-0.281-0.662-0.438-1.06-0.438h-0.001l-1.606,0.001c-0.325,0-0.641,0.106-0.9,0.301l-2.812,2.113l-7.668,0.006
				C30.135,14.988,24.975,14.445,22.116,14.445L22.116,14.445z"/>
		</g>
		
			<linearGradient id="SVGID_1_" gradientUnits="userSpaceOnUse" x1="20.1063" y1="26.5806" x2="13.4623" y2="44.8349" gradientTransform="matrix(-8.000000e-004 -1 -1 8.000000e-004 47.7828 41.3578)">
			<stop  offset="0" style="stop-color:#CFCDC7"/>
			<stop  offset="0.5128" style="stop-color:#E1E0DD"/>
			<stop  offset="1" style="stop-color:#EFEFED"/>
		</linearGradient>
		<path style="fill:url(#SVGID_1_);" d="M21.589,25.587c0,0-16.067,0.014-20.088-1.59c4.017-1.61,20.086-1.624,20.086-1.624
			L21.589,25.587z"/>
		<g>
			<linearGradient id="SVGID_2_" gradientUnits="userSpaceOnUse" x1="33.6394" y1="20.2764" x2="33.6394" y2="27.5342">
				<stop  offset="0" style="stop-color:#FFEBC5"/>
				<stop  offset="0.62" style="stop-color:#FFDBA2"/>
				<stop  offset="1" style="stop-color:#FFD492"/>
			</linearGradient>
			<path style="fill:url(#SVGID_2_);" d="M22.097,32.563c-0.823,0-1.332-0.049-1.353-0.051c-0.256-0.025-0.45-0.241-0.451-0.497
				l-0.016-16.069c0-0.257,0.194-0.472,0.45-0.498c0.022-0.002,0.544-0.054,1.385-0.054c2.779,0,7.855,0.532,10.95,4.058
				l8.442-0.006l3.077-2.314c0.087-0.065,0.192-0.101,0.301-0.101l1.607-0.001c0.276,0,0.5,0.224,0.5,0.5l0.011,12.857
				c0,0.132-0.053,0.26-0.146,0.354c-0.094,0.094-0.221,0.146-0.354,0.146h-1.606c-0.108,0-0.213-0.035-0.3-0.1l-3.083-2.309
				l-8.44,0.008C29.974,32.029,24.885,32.563,22.097,32.563L22.097,32.563z"/>
			<g>
				<path d="M22.113,15.895c2.455,0,7.711,0.454,10.72,4.058l8.839-0.006l3.211-2.415l1.607-0.001l0.011,12.857h-1.606l-3.217-2.408
					l-8.837,0.008c-3.017,3.626-8.303,4.076-10.744,4.076c-0.807,0-1.304-0.049-1.304-0.049l-0.016-16.068
					C20.778,15.946,21.287,15.895,22.113,15.895 M22.113,14.895c-0.866,0-1.413,0.054-1.435,0.056c-0.511,0.052-0.9,0.482-0.9,0.996
					l0.016,16.068c0,0.514,0.39,0.943,0.901,0.994c0.022,0.002,0.555,0.054,1.402,0.054c2.828,0,7.959-0.54,11.198-4.076
					l8.051-0.008l2.949,2.209c0.173,0.129,0.384,0.199,0.6,0.199h1.606c0.266,0,0.52-0.105,0.707-0.293s0.293-0.442,0.293-0.708
					L47.49,17.53c0-0.552-0.448-0.999-1-0.999c0,0,0,0-0.001,0l-1.607,0.001c-0.216,0-0.427,0.071-0.6,0.201l-2.944,2.214
					l-8.052,0.006C30.051,15.433,24.933,14.895,22.113,14.895L22.113,14.895z"/>
			</g>
		</g>
	</g>
</g>
</svg>
