<?xml version="1.0" encoding="utf-8"?>
<!-- Generator: Adobe Illustrator 17.1.0, SVG Export Plug-In . SVG Version: 6.00 Build 0)  -->
<!DOCTYPE svg PUBLIC "-//W3C//DTD SVG 1.1//EN" "http://www.w3.org/Graphics/SVG/1.1/DTD/svg11.dtd">
<svg version="1.1" xmlns="http://www.w3.org/2000/svg" xmlns:xlink="http://www.w3.org/1999/xlink" x="0px" y="0px"
	 viewBox="0 0 16 16" enable-background="new 0 0 16 16" xml:space="preserve">
<g id="Light_x5F_Checkbox_x5F_Focus_x5F_Disabled">
</g>
<g id="Light_x5F_RadioButton_x5F_Focus">
</g>
<g id="Light_x5F_RadioButton_x5F_Disabled">
</g>
<g id="Light_x5F_RadioButton_x5F_Pressed">
	<g>
		<path fill="#F8F6F3" d="M8,15.5c-4.136,0-7.5-3.364-7.5-7.5S3.864,0.5,8,0.5s7.5,3.364,7.5,7.5S12.136,15.5,8,15.5z"/>
		<path fill="#9B978E" d="M8,1c3.866,0,7,3.134,7,7s-3.134,7-7,7s-7-3.134-7-7S4.134,1,8,1 M8,0C3.589,0,0,3.589,0,8s3.589,8,8,8
			s8-3.589,8-8S12.411,0,8,0L8,0z"/>
	</g>
</g>
<g id="Light_x5F_RadioButton_x5F_MouseOver">
</g>
<g id="Light_x5F_RadioButton_x5F_Normal">
</g>
<g id="Dark_x5F_Checkbox_x5F_Focus_x5F_Disabled">
</g>
<g id="Dark_x5F_Checkbox_x5F_Focus">
</g>
<g id="Dark_x5F_RadioButton_x5F_Disabled">
</g>
<g id="Dark_x5F_RadioButton_x5F_Pressed">
</g>
<g id="Dark_x5F_RadioButton_x5F_MouseOver">
</g>
<g id="Dark_x5F_RadioButton_x5F_Normal">
</g>
</svg>
