<?xml version="1.0" encoding="utf-8"?>
<!-- Generator: Adobe Illustrator 17.0.0, SVG Export Plug-In . SVG Version: 6.00 Build 0)  -->
<!DOCTYPE svg PUBLIC "-//W3C//DTD SVG 1.1//EN" "http://www.w3.org/Graphics/SVG/1.1/DTD/svg11.dtd">
<svg version="1.1" id="Elements_3_" xmlns="http://www.w3.org/2000/svg" xmlns:xlink="http://www.w3.org/1999/xlink" x="0px"
	 y="0px" width="32px" height="96px" viewBox="0 0 32 96" enable-background="new 0 0 32 96" xml:space="preserve">
<symbol  id="Dark_x5F_CheckBox_x5F_Disabled_2" viewBox="-8.001 -8 16 16">
	<g opacity="0.4">
		<path fill="#6B6761" d="M-5.001-7.5c-1.378,0-2.5,1.122-2.5,2.5V5c0,1.378,1.122,2.5,2.5,2.5h10c1.378,0,2.5-1.122,2.5-2.5V-5
			c0-1.378-1.122-2.5-2.5-2.5H-5.001z"/>
		<path d="M4.999,7c1.1,0,2-0.9,2-2V-5c0-1.1-0.9-2-2-2h-10c-1.1,0-2,0.9-2,2V5c0,1.1,0.9,2,2,2H4.999 M4.999,8h-10
			c-1.654,0-3-1.346-3-3V-5c0-1.654,1.346-3,3-3h10c1.654,0,3,1.346,3,3V5C7.999,6.654,6.653,8,4.999,8L4.999,8z"/>
	</g>
	<g id="Isolation_Mode_34_">
	</g>
</symbol>
<symbol  id="Dark_x5F_CheckBox_x5F_MouseOver_2" viewBox="-8 -8 16 16">
	<g>
		<linearGradient id="SVGID_1_" gradientUnits="userSpaceOnUse" x1="-3.365130e-010" y1="7.5" x2="3.369358e-010" y2="-7.5">
			<stop  offset="0.0023" style="stop-color:#A8A49B"/>
			<stop  offset="0.2183" style="stop-color:#D5CFC4"/>
		</linearGradient>
		<path fill="url(#SVGID_1_)" d="M-5-7.5c-1.378,0-2.5,1.122-2.5,2.5V5c0,1.378,1.122,2.5,2.5,2.5H5c1.378,0,2.5-1.122,2.5-2.5V-5
			c0-1.378-1.122-2.5-2.5-2.5H-5z"/>
		<path d="M5,7c1.1,0,2-0.9,2-2V-5c0-1.1-0.9-2-2-2H-5c-1.1,0-2,0.9-2,2V5c0,1.1,0.9,2,2,2H5 M5,8H-5c-1.654,0-3-1.346-3-3V-5
			c0-1.654,1.346-3,3-3H5c1.654,0,3,1.346,3,3V5C8,6.654,6.654,8,5,8L5,8z"/>
	</g>
</symbol>
<symbol  id="Dark_x5F_CheckBox_x5F_Normal_2" viewBox="-8 -8 16 16">
	<g>
		<linearGradient id="SVGID_2_" gradientUnits="userSpaceOnUse" x1="-3.365130e-010" y1="7.5" x2="3.369358e-010" y2="-7.5">
			<stop  offset="0" style="stop-color:#8C8881"/>
			<stop  offset="0.22" style="stop-color:#B7B2A8"/>
		</linearGradient>
		<path fill="url(#SVGID_2_)" d="M-5-7.5c-1.378,0-2.5,1.122-2.5,2.5V5c0,1.378,1.122,2.5,2.5,2.5H5c1.378,0,2.5-1.122,2.5-2.5V-5
			c0-1.378-1.122-2.5-2.5-2.5H-5z"/>
		<path d="M5,7c1.1,0,2-0.9,2-2V-5c0-1.1-0.9-2-2-2H-5c-1.1,0-2,0.9-2,2V5c0,1.1,0.9,2,2,2H5 M5,8H-5c-1.654,0-3-1.346-3-3V-5
			c0-1.654,1.346-3,3-3H5c1.654,0,3,1.346,3,3V5C8,6.654,6.654,8,5,8L5,8z"/>
	</g>
</symbol>
<symbol  id="Dark_x5F_CheckBox_x5F_Pressed_2" viewBox="-8 -8 16 16">
	<g>
		<linearGradient id="SVGID_3_" gradientUnits="userSpaceOnUse" x1="-3.365130e-010" y1="7.5" x2="3.369358e-010" y2="-7.5">
			<stop  offset="0" style="stop-color:#8C8881"/>
			<stop  offset="0.22" style="stop-color:#B7B2A8"/>
		</linearGradient>
		<path fill="url(#SVGID_3_)" d="M-5-7.5c-1.378,0-2.5,1.122-2.5,2.5V5c0,1.378,1.122,2.5,2.5,2.5H5c1.378,0,2.5-1.122,2.5-2.5V-5
			c0-1.378-1.122-2.5-2.5-2.5H-5z"/>
		<path d="M5,7c1.1,0,2-0.9,2-2V-5c0-1.1-0.9-2-2-2H-5c-1.1,0-2,0.9-2,2V5c0,1.1,0.9,2,2,2H5 M5,8H-5c-1.654,0-3-1.346-3-3V-5
			c0-1.654,1.346-3,3-3H5c1.654,0,3,1.346,3,3V5C8,6.654,6.654,8,5,8L5,8z"/>
	</g>
</symbol>
<symbol  id="Dark_x5F_Checkbox_x5F_Focus" viewBox="-8 -8 16 16">
	<g id="CheckBox_x5F_Normal_17_">
		<g>
			<linearGradient id="SVGID_4_" gradientUnits="userSpaceOnUse" x1="-3.365130e-010" y1="7.5" x2="3.369358e-010" y2="-7.5">
				<stop  offset="0" style="stop-color:#8C8881"/>
				<stop  offset="0.22" style="stop-color:#FFD67A"/>
			</linearGradient>
			<path fill="url(#SVGID_4_)" d="M-5-7.5c-1.378,0-2.5,1.122-2.5,2.5V5c0,1.378,1.122,2.5,2.5,2.5H5c1.378,0,2.5-1.122,2.5-2.5V-5
				c0-1.378-1.122-2.5-2.5-2.5H-5z"/>
			<path d="M5,7c1.1,0,2-0.9,2-2V-5c0-1.1-0.9-2-2-2H-5c-1.1,0-2,0.9-2,2V5c0,1.1,0.9,2,2,2H5 M5,8H-5c-1.654,0-3-1.346-3-3V-5
				c0-1.654,1.346-3,3-3H5c1.654,0,3,1.346,3,3V5C8,6.654,6.654,8,5,8L5,8z"/>
		</g>
	</g>
	<g id="Dark_Identity_x5F_Visual_Guide_15_">
	</g>
	<g id="Layer_131_8_">
		
			<polyline fill="none" stroke="#000000" stroke-width="3" stroke-linecap="round" stroke-linejoin="round" stroke-miterlimit="10" points="
			-4.579,0.211 -1.441,-4.66 4.631,5 		"/>
	</g>
</symbol>
<symbol  id="Dark_x5F_Checkbox_x5F_Focus_x5F_Disabled" viewBox="-9 -11 16 16">
	<g id="CheckBox_x5F_Normal_22_">
		<g opacity="0.4">
			<path fill="#FFD67A" d="M-6-10.5c-1.378,0-2.5,1.122-2.5,2.5V2c0,1.378,1.122,2.5,2.5,2.5H4c1.378,0,2.5-1.122,2.5-2.5V-8
				c0-1.378-1.122-2.5-2.5-2.5H-6z"/>
			<path d="M4,4c1.1,0,2-0.899,2-2V-8c0-1.1-0.9-2-2-2H-6c-1.1,0-2,0.9-2,2V2c0,1.101,0.9,2,2,2H4 M4,5H-6c-1.654,0-3-1.346-3-3V-8
				c0-1.654,1.346-3,3-3H4c1.654,0,3,1.346,3,3V2C7,3.654,5.654,5,4,5L4,5z"/>
		</g>
	</g>
	<g id="Dark_Identity_x5F_Visual_Guide_16_">
	</g>
	<g id="Layer_131_7_">
		
			<polyline opacity="0.6" fill="none" stroke="#000000" stroke-width="3" stroke-linecap="round" stroke-linejoin="round" stroke-miterlimit="10" stroke-opacity="0.6" points="
			-5.579,-2.789 -2.441,-7.66 3.631,2 		"/>
	</g>
	<g id="Elements_4_">
	</g>
</symbol>
<g>
	<linearGradient id="SVGID_5_" gradientUnits="userSpaceOnUse" x1="24" y1="0.5" x2="24" y2="15.5">
		<stop  offset="0" style="stop-color:#E3DDD1"/>
		<stop  offset="0.2152" style="stop-color:#F8F6F3"/>
	</linearGradient>
	<path fill="url(#SVGID_5_)" d="M19,15.5c-1.379,0-2.5-1.122-2.5-2.5V3c0-1.378,1.121-2.5,2.5-2.5h10c1.379,0,2.5,1.122,2.5,2.5v10
		c0,1.378-1.121,2.5-2.5,2.5H19z"/>
	<path fill="#9B978E" d="M29,1c1.1,0,2,0.9,2,2v10c0,1.1-0.9,2-2,2H19c-1.1,0-2-0.9-2-2V3c0-1.1,0.9-2,2-2H29 M29,0H19
		c-1.654,0-3,1.346-3,3v10c0,1.654,1.346,3,3,3h10c1.654,0,3-1.346,3-3V3C32,1.346,30.654,0,29,0L29,0z"/>
</g>
<g>
	<linearGradient id="SVGID_6_" gradientUnits="userSpaceOnUse" x1="24" y1="16.4998" x2="24" y2="31.4998">
		<stop  offset="0" style="stop-color:#C5BFB5"/>
		<stop  offset="0.22" style="stop-color:#E3DDD1"/>
	</linearGradient>
	<path fill="url(#SVGID_6_)" d="M19,31.5c-1.379,0-2.5-1.121-2.5-2.5V19c0-1.379,1.121-2.5,2.5-2.5h10c1.379,0,2.5,1.121,2.5,2.5v10
		c0,1.379-1.121,2.5-2.5,2.5H19z"/>
	<path fill="#9B978E" d="M29,17c1.1,0,2,0.9,2,2v10c0,1.1-0.9,2-2,2H19c-1.1,0-2-0.9-2-2V19c0-1.1,0.9-2,2-2H29 M29,16H19
		c-1.654,0-3,1.346-3,3v10c0,1.654,1.346,3,3,3h10c1.654,0,3-1.346,3-3V19C32,17.346,30.654,16,29,16L29,16z"/>
</g>
<g>
	<linearGradient id="SVGID_7_" gradientUnits="userSpaceOnUse" x1="24" y1="32.4998" x2="24" y2="47.4998">
		<stop  offset="0" style="stop-color:#E3DDD1"/>
		<stop  offset="0.22" style="stop-color:#F8F6F3"/>
	</linearGradient>
	<path fill="url(#SVGID_7_)" d="M19,47.5c-1.379,0-2.5-1.121-2.5-2.5V35c0-1.379,1.121-2.5,2.5-2.5h10c1.379,0,2.5,1.121,2.5,2.5v10
		c0,1.379-1.121,2.5-2.5,2.5H19z"/>
	<path fill="#9B978E" d="M29,33c1.1,0,2,0.9,2,2v10c0,1.1-0.9,2-2,2H19c-1.1,0-2-0.9-2-2V35c0-1.1,0.9-2,2-2H29 M29,32H19
		c-1.654,0-3,1.346-3,3v10c0,1.654,1.346,3,3,3h10c1.654,0,3-1.346,3-3V35C32,33.346,30.654,32,29,32L29,32z"/>
</g>
<g>
	<path fill="#E9E3DA" d="M19,63.5c-1.379,0-2.5-1.121-2.5-2.5V51c0-1.379,1.121-2.5,2.5-2.5h10c1.379,0,2.5,1.121,2.5,2.5v10
		c0,1.379-1.121,2.5-2.5,2.5H19z"/>
	<path fill="#D5CFC4" d="M29,49c1.1,0,2,0.9,2,2v10c0,1.1-0.9,2-2,2H19c-1.1,0-2-0.9-2-2V51c0-1.1,0.9-2,2-2H29 M29,48H19
		c-1.654,0-3,1.346-3,3v10c0,1.654,1.346,3,3,3h10c1.654,0,3-1.346,3-3V51C32,49.346,30.654,48,29,48L29,48z"/>
</g>
<g>
	<linearGradient id="SVGID_8_" gradientUnits="userSpaceOnUse" x1="24" y1="64.4998" x2="24" y2="79.4998">
		<stop  offset="0" style="stop-color:#E8E0D1"/>
		<stop  offset="0.22" style="stop-color:#FFD67A"/>
	</linearGradient>
	<path fill="url(#SVGID_8_)" d="M19,79.5c-1.379,0-2.5-1.121-2.5-2.5V67c0-1.379,1.121-2.5,2.5-2.5h10c1.379,0,2.5,1.121,2.5,2.5v10
		c0,1.379-1.121,2.5-2.5,2.5H19z"/>
	<path fill="#9B978E" d="M29,65c1.1,0,2,0.9,2,2v10c0,1.1-0.9,2-2,2H19c-1.1,0-2-0.9-2-2V67c0-1.1,0.9-2,2-2H29 M29,64H19
		c-1.654,0-3,1.346-3,3v10c0,1.654,1.346,3,3,3h10c1.654,0,3-1.346,3-3V67C32,65.346,30.654,64,29,64L29,64z"/>
</g>
<polyline fill="none" stroke="#5C5A54" stroke-width="3" stroke-linecap="round" stroke-linejoin="round" stroke-miterlimit="10" points="
	19.132,71.789 22.27,76.66 28.342,67 "/>
<g>
	<path fill="#F3E3C3" d="M19,95.5c-1.379,0-2.5-1.121-2.5-2.5V83c0-1.379,1.121-2.5,2.5-2.5h10c1.379,0,2.5,1.121,2.5,2.5v10
		c0,1.379-1.121,2.5-2.5,2.5H19z"/>
	<path fill="#D5D1C9" d="M29,81c1.1,0,2,0.9,2,2v10c0,1.1-0.9,2-2,2H19c-1.1,0-2-0.9-2-2V83c0-1.1,0.9-2,2-2H29 M29,80H19
		c-1.654,0-3,1.346-3,3v10c0,1.654,1.346,3,3,3h10c1.654,0,3-1.346,3-3V83C32,81.346,30.654,80,29,80L29,80z"/>
</g>
<polyline fill="none" stroke="#D5D1C9" stroke-width="3" stroke-linecap="round" stroke-linejoin="round" stroke-miterlimit="10" points="
	19.132,87.789 22.27,92.66 28.342,83 "/>
<use xlink:href="#Dark_x5F_CheckBox_x5F_Normal_2"  width="16" height="16" id="XMLID_702_" x="-8" y="-8" transform="matrix(1 0 0 -1 8 7.9998)" overflow="visible"/>
<use xlink:href="#Dark_x5F_CheckBox_x5F_MouseOver_2"  width="16" height="16" id="XMLID_700_" x="-8" y="-8" transform="matrix(1 0 0 -1 8 23.9998)" overflow="visible"/>
<use xlink:href="#Dark_x5F_CheckBox_x5F_Pressed_2"  width="16" height="16" id="XMLID_699_" x="-8" y="-8" transform="matrix(1 0 0 -1 8 39.9998)" overflow="visible"/>
<use xlink:href="#Dark_x5F_CheckBox_x5F_Disabled_2"  width="16" height="16" id="XMLID_686_" x="-8.001" y="-8" transform="matrix(1 0 0 -1 8.001 55.9998)" overflow="visible"/>
<use xlink:href="#Dark_x5F_Checkbox_x5F_Focus"  width="16" height="16" id="XMLID_683_" x="-8" y="-8" transform="matrix(1 0 0 -1 8 71.9998)" overflow="visible"/>
<use xlink:href="#Dark_x5F_Checkbox_x5F_Focus_x5F_Disabled"  width="16" height="16" id="XMLID_407_" x="-9" y="-11" transform="matrix(1 0 0 -1 9 85.0002)" overflow="visible"/>
</svg>
