<?xml version="1.0" encoding="utf-8"?>
<!-- Generator: Adobe Illustrator 17.1.0, SVG Export Plug-In . SVG Version: 6.00 Build 0)  -->
<!DOCTYPE svg PUBLIC "-//W3C//DTD SVG 1.1//EN" "http://www.w3.org/Graphics/SVG/1.1/DTD/svg11.dtd">
<svg version="1.1" xmlns="http://www.w3.org/2000/svg" xmlns:xlink="http://www.w3.org/1999/xlink" x="0px" y="0px"
	 viewBox="0 0 16 16" enable-background="new 0 0 16 16" xml:space="preserve">
<g id="Light_x5F_Checkbox_x5F_Focus_x5F_Disabled">
	<g>
		<path fill="#F3E3C3" d="M3,15.5c-1.379,0-2.5-1.121-2.5-2.5V3c0-1.379,1.121-2.5,2.5-2.5h10c1.379,0,2.5,1.121,2.5,2.5v10
			c0,1.379-1.121,2.5-2.5,2.5H3z"/>
		<path fill="#D5D1C9" d="M13,1c1.1,0,2,0.9,2,2v10c0,1.1-0.9,2-2,2H3c-1.1,0-2-0.9-2-2V3c0-1.1,0.9-2,2-2H13 M13,0H3
			C1.346,0,0,1.346,0,3v10c0,1.654,1.346,3,3,3h10c1.654,0,3-1.346,3-3V3C16,1.346,14.654,0,13,0L13,0z"/>
	</g>
	
		<polyline fill="none" stroke="#D5D1C9" stroke-width="3" stroke-linecap="round" stroke-linejoin="round" stroke-miterlimit="10" points="
		3.132,7.789 6.27,12.66 12.342,3 	"/>
</g>
<g id="Light_x5F_Checkbox_x5F_Focus">
</g>
<g id="Light_x5F_CheckBox_x5F_Disabled">
</g>
<g id="Light_x5F_CheckBox_x5F_Pressed">
</g>
<g id="Light_x5F_CheckBox_x5F_MouseOver">
</g>
<g id="Light_x5F_CheckBox_x5F_Normal">
</g>
<g id="Dark_x5F_Checkbox_x5F_Focus_x5F_Disabled">
</g>
<g id="Dark_x5F_Checkbox_x5F_Focus">
</g>
<g id="Dark_x5F_CheckBox_x5F_Disabled">
</g>
<g id="Dark_x5F_CheckBox_x5F_Pressed">
</g>
<g id="Dark_x5F_CheckBox_x5F_MouseOver">
</g>
<g id="Dark_x5F_CheckBox_x5F_Normal">
</g>
</svg>
