<?xml version="1.0" encoding="utf-8"?>
<!-- Generator: Adobe Illustrator 18.0.0, SVG Export Plug-In . SVG Version: 6.00 Build 0)  -->
<!DOCTYPE svg PUBLIC "-//W3C//DTD SVG 1.1//EN" "http://www.w3.org/Graphics/SVG/1.1/DTD/svg11.dtd">
<svg version="1.1" xmlns="http://www.w3.org/2000/svg" xmlns:xlink="http://www.w3.org/1999/xlink" x="0px" y="0px"
	 viewBox="0 0 48 48" enable-background="new 0 0 48 48" xml:space="preserve">
<g id="canvas">
	<rect opacity="0" fill="#FFFFFF" width="48" height="48"/>
</g>
<g id="Layer_3">
	<g>
		<linearGradient id="SVGID_1_" gradientUnits="userSpaceOnUse" x1="37.7381" y1="10.2617" x2="10.0092" y2="37.9906">
			<stop  offset="0" style="stop-color:#FF5050"/>
			<stop  offset="0.2326" style="stop-color:#FD3A3A"/>
			<stop  offset="0.7401" style="stop-color:#F91010"/>
			<stop  offset="1" style="stop-color:#F80000"/>
		</linearGradient>
		<path fill="url(#SVGID_1_)" d="M24,46.8C11.5,46.8,1.3,36.5,1.3,24C1.3,11.5,11.5,1.3,24,1.3c12.5,0,22.8,10.2,22.8,22.8
			C46.8,36.5,36.5,46.8,24,46.8z"/>
		<path d="M24,2c12.2,0,22,9.8,22,22s-9.8,22-22,22C11.8,46,2,36.2,2,24S11.8,2,24,2 M24,0.5C11,0.5,0.5,11,0.5,24S11,47.5,24,47.5
			S47.5,37,47.5,24S37,0.5,24,0.5L24,0.5z"/>
	</g>
	<g>
		<linearGradient id="SVGID_2_" gradientUnits="userSpaceOnUse" x1="13.9125" y1="34.0904" x2="33.0747" y2="14.9283">
			<stop  offset="0" style="stop-color:#D1CFC9"/>
			<stop  offset="0.5164" style="stop-color:#DCD9D6"/>
			<stop  offset="1" style="stop-color:#EBE6E6"/>
		</linearGradient>
		<path fill="url(#SVGID_2_)" d="M34.3,37.7c-0.9,0-1.8-0.4-2.4-1L24,28.8l-7.9,7.9c-0.6,0.6-1.5,1-2.4,1c-0.9,0-1.8-0.4-2.4-1
			c-0.6-0.6-1-1.5-1-2.4c0-0.9,0.4-1.8,1-2.4l7.9-7.9l-7.9-7.9c-0.6-0.6-1-1.5-1-2.4c0-0.9,0.4-1.8,1-2.4c0.6-0.6,1.5-1,2.4-1
			c0.9,0,1.8,0.4,2.4,1l7.9,7.9l7.9-7.9c0.6-0.6,1.5-1,2.4-1c0.9,0,1.8,0.4,2.4,1c1.3,1.3,1.3,3.5,0,4.8L28.8,24l7.9,7.9
			c1.3,1.3,1.3,3.5,0,4.8C36.1,37.4,35.2,37.7,34.3,37.7z"/>
		<path d="M34.3,10.8c0.7,0,1.5,0.3,2.1,0.9c1.1,1.1,1.1,3,0,4.1L28.1,24l8.2,8.2c1.1,1.1,1.1,3,0,4.1c-0.6,0.6-1.3,0.9-2.1,0.9
			c-0.7,0-1.5-0.3-2.1-0.9L24,28.1l-8.2,8.2c-0.6,0.6-1.3,0.9-2.1,0.9s-1.5-0.3-2.1-0.9c-1.1-1.1-1.1-3,0-4.1l8.2-8.2l-8.2-8.2
			c-1.1-1.1-1.1-3,0-4.1c0.6-0.6,1.3-0.9,2.1-0.9s1.5,0.3,2.1,0.9l8.2,8.2l8.2-8.2C32.8,11.1,33.6,10.8,34.3,10.8 M34.3,9.8
			c-1,0-2,0.4-2.8,1.1L24,18.5l-7.5-7.5c-0.7-0.7-1.7-1.1-2.8-1.1c-1,0-2,0.4-2.8,1.1c-0.7,0.7-1.1,1.7-1.1,2.8c0,1,0.4,2,1.1,2.8
			l7.5,7.5l-7.5,7.5c-0.7,0.7-1.1,1.7-1.1,2.8c0,1,0.4,2,1.1,2.8c0.7,0.7,1.7,1.1,2.8,1.1c1,0,2-0.4,2.8-1.1l7.5-7.5l7.5,7.5
			c0.7,0.7,1.7,1.1,2.8,1.1c1,0,2-0.4,2.8-1.1c1.5-1.5,1.5-4,0-5.5L29.5,24l7.5-7.5c1.5-1.5,1.5-4,0-5.5
			C36.3,10.2,35.3,9.8,34.3,9.8L34.3,9.8z"/>
	</g>
</g>
</svg>
